
Nova Experiência Por Cores e Formato : 28/01/2020 14:39:38

		=>Item inserido na caixa Correta

		=>Item : voley_

		=>Tempo a agarrar : 5,357652

		=>Item : book1

		=>Tempo a agarrar : 0

		=>Item : book2

		=>Tempo a agarrar : 0

		=>Item : book5

		=>Tempo a agarrar : 0

		=>Item : book8

		=>Tempo a agarrar : 0

		=>Item : darkBlueBottle

		=>Tempo a agarrar : 0

		=>Item : blackOrangeMtDewBottle

		=>Tempo a agarrar : 0

		=>Item : whiteBottle (1)

		=>Tempo a agarrar : 0

		=>Item : ligthBlueBottle

		=>Tempo a agarrar : 0

		=>Item : voley

		=>Tempo a agarrar : 0

Experiencia Acabada

		=>Item : bowling

		=>Tempo a agarrar : 0

Experiencia Acabada

		=>Item : basketball_orange

		=>Tempo a agarrar : 0

Experiencia Acabada

		=>Item : basketball_black

		=>Tempo a agarrar : 0

Experiencia Acabada

		=>Item : pokemon

		=>Tempo a agarrar : 0

Experiencia Acabada

		=>Item : voley (1)

		=>Tempo a agarrar : 0

Experiencia Acabada

		=>Item : soccer (1)

		=>Tempo a agarrar : 0

Experiencia Acabada
